digraph "Square"
{
 // LATEX_PDF_SIZE
  edge [fontname="Helvetica",fontsize="10",labelfontname="Helvetica",labelfontsize="10"];
  node [fontname="Helvetica",fontsize="10",shape=record];
  Node1 [label="Square",height=0.2,width=0.4,color="black", fillcolor="grey75", style="filled", fontcolor="black",tooltip="The purpose of this class is to realistically model the physical attributes and functionallity of a S..."];
  Node2 -> Node1 [dir="back",color="midnightblue",fontsize="10",style="solid"];
  Node2 [label="Shape",height=0.2,width=0.4,color="black", fillcolor="white", style="filled",URL="$class_shape.html",tooltip="The purpose of this class is to realistically model the physical attributes and functionallity of a S..."];
}
