S014000041737369676E6D656E742D30352E616273DC
S123182C450180949ACC185A8B89879EEE068C9EE607F99EE70686888A818B89879EEE0658
S123184C8C9EE60740F99EE706CD18348688B68087B68187CD183486B784A701B68087B606
S113186C8187CD184686B786A7019DC7180020DE50
S105FFFE182CB9
S9030000FC
